<?xml version="1.0" encoding="UTF-8"?>
<testsuite name="com.disf.SpringsecurityldapApplicationTests" tests="1" skipped="0" failures="0" errors="0" timestamp="2016-06-14T13:21:24" hostname="denis-pc" time="0.002">
  <properties/>
  <testcase name="contextLoads" classname="com.disf.SpringsecurityldapApplicationTests" time="0.002"/>
  <system-out><![CDATA[16:21:21.820 [Test worker] DEBUG org.springframework.test.context.junit4.SpringJUnit4ClassRunner - SpringJUnit4ClassRunner constructor called with [class com.disf.SpringsecurityldapApplicationTests]
16:21:21.826 [Test worker] DEBUG org.springframework.test.context.BootstrapUtils - Instantiating CacheAwareContextLoaderDelegate from class [org.springframework.test.context.cache.DefaultCacheAwareContextLoaderDelegate]
16:21:21.831 [Test worker] DEBUG org.springframework.test.context.BootstrapUtils - Instantiating BootstrapContext using constructor [public org.springframework.test.context.support.DefaultBootstrapContext(java.lang.Class,org.springframework.test.context.CacheAwareContextLoaderDelegate)]
16:21:21.843 [Test worker] DEBUG org.springframework.test.context.BootstrapUtils - Instantiating TestContextBootstrapper for test class [com.disf.SpringsecurityldapApplicationTests] from class [org.springframework.test.context.web.WebTestContextBootstrapper]
16:21:21.864 [Test worker] DEBUG org.springframework.test.context.web.WebTestContextBootstrapper - Found explicit ContextLoader class [org.springframework.boot.test.SpringApplicationContextLoader] for context configuration attributes [ContextConfigurationAttributes@5d2628cd declaringClass = 'com.disf.SpringsecurityldapApplicationTests', classes = '{class com.disf.SpringsecurityldapApplication}', locations = '{}', inheritLocations = true, initializers = '{}', inheritInitializers = true, name = [null], contextLoaderClass = 'org.springframework.boot.test.SpringApplicationContextLoader']
16:21:21.872 [Test worker] DEBUG org.springframework.test.context.support.AbstractContextLoader - Did not detect default resource location for test class [com.disf.SpringsecurityldapApplicationTests]: class path resource [com/disf/SpringsecurityldapApplicationTests-context.xml] does not exist
16:21:21.872 [Test worker] DEBUG org.springframework.test.context.support.AbstractContextLoader - Did not detect default resource location for test class [com.disf.SpringsecurityldapApplicationTests]: class path resource [com/disf/SpringsecurityldapApplicationTestsContext.groovy] does not exist
16:21:21.873 [Test worker] INFO org.springframework.test.context.support.AbstractContextLoader - Could not detect default resource locations for test class [com.disf.SpringsecurityldapApplicationTests]: no resource found for suffixes {-context.xml, Context.groovy}.
16:21:21.875 [Test worker] DEBUG org.springframework.test.context.support.ActiveProfilesUtils - Could not find an 'annotation declaring class' for annotation type [org.springframework.test.context.ActiveProfiles] and class [com.disf.SpringsecurityldapApplicationTests]
16:21:21.880 [Test worker] DEBUG org.springframework.test.context.web.WebTestContextBootstrapper - @TestExecutionListeners is not present for class [com.disf.SpringsecurityldapApplicationTests]: using defaults.
16:21:21.889 [Test worker] INFO org.springframework.test.context.web.WebTestContextBootstrapper - Loaded default TestExecutionListener class names from location [META-INF/spring.factories]: [org.springframework.test.context.web.ServletTestExecutionListener, org.springframework.test.context.support.DirtiesContextBeforeModesTestExecutionListener, org.springframework.test.context.support.DependencyInjectionTestExecutionListener, org.springframework.test.context.support.DirtiesContextTestExecutionListener, org.springframework.test.context.transaction.TransactionalTestExecutionListener, org.springframework.test.context.jdbc.SqlScriptsTestExecutionListener]
16:21:21.899 [Test worker] INFO org.springframework.test.context.web.WebTestContextBootstrapper - Could not instantiate TestExecutionListener [org.springframework.test.context.transaction.TransactionalTestExecutionListener]. Specify custom listener classes or make the default listener classes (and their required dependencies) available. Offending class: [org/springframework/transaction/TransactionDefinition]
16:21:21.900 [Test worker] INFO org.springframework.test.context.web.WebTestContextBootstrapper - Could not instantiate TestExecutionListener [org.springframework.test.context.jdbc.SqlScriptsTestExecutionListener]. Specify custom listener classes or make the default listener classes (and their required dependencies) available. Offending class: [org/springframework/transaction/interceptor/TransactionAttribute]
16:21:21.902 [Test worker] INFO org.springframework.test.context.web.WebTestContextBootstrapper - Using TestExecutionListeners: [org.springframework.test.context.web.ServletTestExecutionListener@d682dd, org.springframework.test.context.support.DirtiesContextBeforeModesTestExecutionListener@69611524, org.springframework.test.context.support.DependencyInjectionTestExecutionListener@7511b409, org.springframework.test.context.support.DirtiesContextTestExecutionListener@15869127]
16:21:21.906 [Test worker] DEBUG org.springframework.test.annotation.ProfileValueUtils - Retrieved @ProfileValueSourceConfiguration [null] for test class [com.disf.SpringsecurityldapApplicationTests]
16:21:21.907 [Test worker] DEBUG org.springframework.test.annotation.ProfileValueUtils - Retrieved ProfileValueSource type [class org.springframework.test.annotation.SystemProfileValueSource] for class [com.disf.SpringsecurityldapApplicationTests]
16:21:21.908 [Test worker] DEBUG org.springframework.test.annotation.ProfileValueUtils - Retrieved @ProfileValueSourceConfiguration [null] for test class [com.disf.SpringsecurityldapApplicationTests]
16:21:21.908 [Test worker] DEBUG org.springframework.test.annotation.ProfileValueUtils - Retrieved ProfileValueSource type [class org.springframework.test.annotation.SystemProfileValueSource] for class [com.disf.SpringsecurityldapApplicationTests]
16:21:21.912 [Test worker] DEBUG org.springframework.test.context.support.AbstractDirtiesContextTestExecutionListener - Before test class: context [DefaultTestContext@7b557771 testClass = SpringsecurityldapApplicationTests, testInstance = [null], testMethod = [null], testException = [null], mergedContextConfiguration = [WebMergedContextConfiguration@1a3b503e testClass = SpringsecurityldapApplicationTests, locations = '{}', classes = '{class com.disf.SpringsecurityldapApplication}', contextInitializerClasses = '[]', activeProfiles = '{}', propertySourceLocations = '{}', propertySourceProperties = '{}', resourceBasePath = 'src/main/webapp', contextLoader = 'org.springframework.boot.test.SpringApplicationContextLoader', parent = [null]]], class annotated with @DirtiesContext [false] with mode [null].
16:21:21.913 [Test worker] DEBUG org.springframework.test.annotation.ProfileValueUtils - Retrieved @ProfileValueSourceConfiguration [null] for test class [com.disf.SpringsecurityldapApplicationTests]
16:21:21.913 [Test worker] DEBUG org.springframework.test.annotation.ProfileValueUtils - Retrieved ProfileValueSource type [class org.springframework.test.annotation.SystemProfileValueSource] for class [com.disf.SpringsecurityldapApplicationTests]
16:21:21.988 [Test worker] DEBUG org.springframework.core.env.StandardEnvironment - Adding [systemProperties] PropertySource with lowest search precedence
16:21:21.990 [Test worker] DEBUG org.springframework.core.env.StandardEnvironment - Adding [systemEnvironment] PropertySource with lowest search precedence
16:21:21.990 [Test worker] DEBUG org.springframework.core.env.StandardEnvironment - Initialized StandardEnvironment with PropertySources [systemProperties,systemEnvironment]
16:21:21.991 [Test worker] DEBUG org.springframework.core.env.StandardEnvironment - Adding [integrationTest] PropertySource with search precedence immediately lower than [systemEnvironment]

  .   ____          _            __ _ _
 /\\ / ___'_ __ _ _(_)_ __  __ _ \ \ \ \
( ( )\___ | '_ | '_| | '_ \/ _` | \ \ \ \
 \\/  ___)| |_)| | | | | || (_| |  ) ) ) )
  '  |____| .__|_| |_|_| |_\__, | / / / /
 =========|_|==============|___/=/_/_/_/
 :: Spring Boot ::        (v1.3.5.RELEASE)

2016-06-14 16:21:22.260  INFO 21396 --- [    Test worker] c.d.SpringsecurityldapApplicationTests   : Starting SpringsecurityldapApplicationTests on denis-pc with PID 21396 (/home/denis/Documents/Projects/Spring/springsecurityldap/build/classes/test started by denis in /home/denis/Documents/Projects/Spring/springsecurityldap)
2016-06-14 16:21:22.262  INFO 21396 --- [    Test worker] c.d.SpringsecurityldapApplicationTests   : No active profile set, falling back to default profiles: default
2016-06-14 16:21:22.386  INFO 21396 --- [    Test worker] o.s.w.c.s.GenericWebApplicationContext   : Refreshing org.springframework.web.context.support.GenericWebApplicationContext@6f526062: startup date [Tue Jun 14 16:21:22 EEST 2016]; root of context hierarchy
2016-06-14 16:21:24.246  INFO 21396 --- [    Test worker] s.w.s.m.m.a.RequestMappingHandlerAdapter : Looking for @ControllerAdvice: org.springframework.web.context.support.GenericWebApplicationContext@6f526062: startup date [Tue Jun 14 16:21:22 EEST 2016]; root of context hierarchy
2016-06-14 16:21:24.326  INFO 21396 --- [    Test worker] s.w.s.m.m.a.RequestMappingHandlerMapping : Mapped "{[/error],produces=[text/html]}" onto public org.springframework.web.servlet.ModelAndView org.springframework.boot.autoconfigure.web.BasicErrorController.errorHtml(javax.servlet.http.HttpServletRequest,javax.servlet.http.HttpServletResponse)
2016-06-14 16:21:24.327  INFO 21396 --- [    Test worker] s.w.s.m.m.a.RequestMappingHandlerMapping : Mapped "{[/error]}" onto public org.springframework.http.ResponseEntity<java.util.Map<java.lang.String, java.lang.Object>> org.springframework.boot.autoconfigure.web.BasicErrorController.error(javax.servlet.http.HttpServletRequest)
2016-06-14 16:21:24.363  INFO 21396 --- [    Test worker] o.s.w.s.handler.SimpleUrlHandlerMapping  : Mapped URL path [/webjars/**] onto handler of type [class org.springframework.web.servlet.resource.ResourceHttpRequestHandler]
2016-06-14 16:21:24.364  INFO 21396 --- [    Test worker] o.s.w.s.handler.SimpleUrlHandlerMapping  : Mapped URL path [/**] onto handler of type [class org.springframework.web.servlet.resource.ResourceHttpRequestHandler]
2016-06-14 16:21:24.403  INFO 21396 --- [    Test worker] o.s.w.s.handler.SimpleUrlHandlerMapping  : Mapped URL path [/**/favicon.ico] onto handler of type [class org.springframework.web.servlet.resource.ResourceHttpRequestHandler]
2016-06-14 16:21:24.617  INFO 21396 --- [    Test worker] b.a.s.AuthenticationManagerConfiguration : 

Using default security password: db7aba2d-6760-4421-85c4-4c017fe6a690

2016-06-14 16:21:24.679  INFO 21396 --- [    Test worker] o.s.s.web.DefaultSecurityFilterChain     : Creating filter chain: Ant [pattern='/css/**'], []
2016-06-14 16:21:24.680  INFO 21396 --- [    Test worker] o.s.s.web.DefaultSecurityFilterChain     : Creating filter chain: Ant [pattern='/js/**'], []
2016-06-14 16:21:24.681  INFO 21396 --- [    Test worker] o.s.s.web.DefaultSecurityFilterChain     : Creating filter chain: Ant [pattern='/images/**'], []
2016-06-14 16:21:24.681  INFO 21396 --- [    Test worker] o.s.s.web.DefaultSecurityFilterChain     : Creating filter chain: Ant [pattern='/**/favicon.ico'], []
2016-06-14 16:21:24.682  INFO 21396 --- [    Test worker] o.s.s.web.DefaultSecurityFilterChain     : Creating filter chain: Ant [pattern='/error'], []
2016-06-14 16:21:24.788  INFO 21396 --- [    Test worker] o.s.s.web.DefaultSecurityFilterChain     : Creating filter chain: OrRequestMatcher [requestMatchers=[Ant [pattern='/**']]], [org.springframework.security.web.context.request.async.WebAsyncManagerIntegrationFilter@7dc6e802, org.springframework.security.web.context.SecurityContextPersistenceFilter@4381ab1d, org.springframework.security.web.header.HeaderWriterFilter@70ee20a3, org.springframework.security.web.authentication.logout.LogoutFilter@41c1453c, org.springframework.security.web.authentication.www.BasicAuthenticationFilter@19c5462, org.springframework.security.web.savedrequest.RequestCacheAwareFilter@3f1115b7, org.springframework.security.web.servletapi.SecurityContextHolderAwareRequestFilter@8e02609, org.springframework.security.web.authentication.AnonymousAuthenticationFilter@57b5a753, org.springframework.security.web.session.SessionManagementFilter@689b9948, org.springframework.security.web.access.ExceptionTranslationFilter@5345700c, org.springframework.security.web.access.intercept.FilterSecurityInterceptor@5254088f]
2016-06-14 16:21:24.938  INFO 21396 --- [    Test worker] c.d.SpringsecurityldapApplicationTests   : Started SpringsecurityldapApplicationTests in 2.939 seconds (JVM running for 3.925)
]]></system-out>
  <system-err><![CDATA[]]></system-err>
</testsuite>
